Linear Regression - R, Statistics and Visualization
…
As we can see R-squared value is 0.622 (1 is perfect prediction), Residual Standard Error (RSE) is 0.112 (minimize as much as possible), and F-statistics is 463.594 (larger the better).

Making Prediction

We have our model ready, now we can use this model on to predict temperature changes on unseen data and assess its accuracy.

climate_test <- climate_test %>%
  add_predictions(model1)

climate_test %>%
  select(Temp, pred)

## # A tibble: 24 x 2
##     Temp  pred
##    <dbl> <dbl>
##  1 0.601 0.516
##  2 0.498 0.527
##  3 0.435 0.537
##  4 0.466 0.560
##  5 0.372 0.562
##  6 0.382 0.555
##  7 0.394 0.536
##  8 0.358 0.505
##  9 0.402 0.491
## 10 0.362 0.494
## # … with 14 more rows
…
Making Prediction

Having analyzed the model on training data both, numerically and visually, we’re now ready to make prediction on the testing dataset. We will use model3 for predictions.

(climate_test <- climate_test %>%
  add_predictions(model3)) %>%
  select(Temp, pred, everything())

## # A tibble: 24 x 12
##     Temp  pred  Year Month    MEI   CO2   CH4   N2O `CFC-11` `CFC-12`   TSI
##    <dbl> <dbl> <dbl> <dbl>  <dbl> <dbl> <dbl> <dbl>    <dbl>    <dbl> <dbl>
##  1 0.601 0.488  2007     1  0.974  383. 1800.  321.     248.     539. 1366.
##  2 0.498 0.462  2007     2  0.51   384. 1803.  321.     248.     539. 1366.
##  3 0.435 0.442  2007     3  0.074  385. 1803.  321.     248.     539. 1366.
##  4 0.466 0.440  2007     4 -0.049  386. 1802.  321.     248.     539. 1366.
##  5 0.372 0.454  2007     5  0.183  387. 1796.  320.     247.     538. 1366.
##  6 0.382 0.423  2007     6 -0.358  386. 1782.  320.     247.     537. 1366.
##  7 0.394 0.421  2007     7 -0.290  384. 1772.  320.     246.     537. 1366.
##  8 0.358 0.403  2007     8 -0.44   382  1779.  320.     246.     537. 1366.
##  9 0.402 0.349  2007     9 -1.16   381. 1794.  321.     246.     537. 1366.
## 10 0.362 0.354  2007    10 -1.14   381. 1802.  321.     246.     537. 1366.
## # … with 14 more rows, and 1 more variable: Aerosols <dbl>
…
